<?xml version="1.0" encoding="UTF-8"?>
<session version="1.0">
<refactoring comment="Copy element &apos;dao&apos; to &apos;demoJPA2/src&apos;&#x0D;&#x0A;- Original project: &apos;demoJPA&apos;&#x0D;&#x0A;- Destination element: &apos;demoJPA2/src&apos;&#x0D;&#x0A;- Original element: &apos;dao&apos;" description="Copy folder" destination="=demoJPA2/src" element1="src/main/java/com/example/demoJPA/dao" files="0" flags="589830" folders="1" id="org.eclipse.jdt.ui.copy" policy="org.eclipse.jdt.ui.copyResources" stamp="1499784484132" units="0" version="1.0"/>
</session>